{
  "inputFiles": [
    "./cpml.d.ts",
    "./du-api.d.ts",
    "./du-globals.d.ts",
    "./dkjson.d.ts",
    "./pl.d.ts",
    "./script.d.ts"
  ],
  "mode": "modules",
  "out": "docs",
  "includeDeclarations": true,
  "excludeExternals": true
}
